{
  "main": {
    "id": "ef4a17a06fc0c797",
    "type": "split",
    "children": [
      {
        "id": "7a7e1d814b2d608b",
        "type": "tabs",
        "children": [
          {
            "id": "ae3942045e3ef4e0",
            "type": "leaf",
            "state": {
              "type": "empty",
              "state": {}
            }
          }
        ]
      }
    ],
    "direction": "vertical"
  },
  "left": {
    "id": "739e1b49bc4e97ba",
    "type": "split",
    "children": [
      {
        "id": "d8792ce033bb6f2c",
        "type": "tabs",
        "children": [
          {
            "id": "61a1cf6d320c7ff9",
            "type": "leaf",
            "state": {
              "type": "file-explorer",
              "state": {
                "sortOrder": "alphabetical"
              }
            }
          },
          {
            "id": "a3182378b01a434e",
            "type": "leaf",
            "state": {
              "type": "search",
              "state": {
                "query": "",
                "matchingCase": false,
                "explainSearch": false,
                "collapseAll": false,
                "extraContext": false,
                "sortOrder": "alphabetical"
              }
            }
          },
          {
            "id": "1720d6cf582d9c77",
            "type": "leaf",
            "state": {
              "type": "starred",
              "state": {}
            }
          },
          {
            "id": "e0625781a9d6f511",
            "type": "leaf",
            "state": {
              "type": "bookmarks",
              "state": {}
            }
          }
        ]
      }
    ],
    "direction": "horizontal",
    "width": 300
  },
  "right": {
    "id": "63ef179d98b03ea8",
    "type": "split",
    "children": [
      {
        "id": "6aedb0a4bbfa46d6",
        "type": "tabs",
        "children": [
          {
            "id": "9bc69f280e7be6cf",
            "type": "leaf",
            "state": {
              "type": "backlink",
              "state": {
                "file": "virtual-reality/VR Hacking.md",
                "collapseAll": false,
                "extraContext": false,
                "sortOrder": "alphabetical",
                "showSearch": false,
                "searchQuery": "",
                "backlinkCollapsed": false,
                "unlinkedCollapsed": true
              }
            }
          },
          {
            "id": "cf70952c28676a91",
            "type": "leaf",
            "state": {
              "type": "outgoing-link",
              "state": {
                "file": "virtual-reality/VR Hacking.md",
                "linksCollapsed": false,
                "unlinkedCollapsed": true
              }
            }
          },
          {
            "id": "39b3c384bd066cd9",
            "type": "leaf",
            "state": {
              "type": "tag",
              "state": {
                "sortOrder": "frequency",
                "useHierarchy": true
              }
            }
          },
          {
            "id": "0cd30779728f42ca",
            "type": "leaf",
            "state": {
              "type": "outline",
              "state": {
                "file": "virtual-reality/VR Hacking.md"
              }
            }
          }
        ]
      }
    ],
    "direction": "horizontal",
    "width": 300,
    "collapsed": true
  },
  "left-ribbon": {
    "hiddenItems": {
      "switcher:Open quick switcher": false,
      "graph:Open graph view": false,
      "canvas:Create new canvas": false,
      "daily-notes:Open today's daily note": false,
      "templates:Insert template": false,
      "command-palette:Open command palette": false
    }
  },
  "active": "ae3942045e3ef4e0",
  "lastOpenFiles": [
    "image/Moshing.md",
    "virtual-reality/VR Hacking.md",
    "hardware/uxn.md",
    "Untitled",
    "hardware/Microcontrollers.md",
    "hardware/inkplate.md",
    "virtual-reality/FBT Notes By Roliga.md",
    "decentralization/Protocols.md",
    "decentralization/Tools.md",
    "decentralization"
  ]
}